<?xml version="1.0" encoding="utf-8"?>
<!-- Generator: Adobe Illustrator 23.0.1, SVG Export Plug-In . SVG Version: 6.00 Build 0)  -->
<svg version="1.1" id="Layer_1" xmlns="http://www.w3.org/2000/svg" xmlns:xlink="http://www.w3.org/1999/xlink" x="0px" y="0px"
	 viewBox="0 0 100 60" style="enable-background:new 0 0 100 60;" xml:space="preserve">
<style type="text/css">
	.st0{fill:#FFFFFF;}
</style>
<g>
	<g>
		<rect x="6.4" class="st0" width="6.2" height="6.2"/>
		<rect x="16.5" class="st0" width="6.2" height="6.2"/>
		<path class="st0" d="M16.5,31.2H43v-21h-6.2v15h-4v-15h-6.2v15h-4v-15C0.7,11,0,31.5,0,31.5h6.4C8.1,20,16.5,18.2,16.5,18.2
			S16.5,31.2,16.5,31.2z"/>
		<rect x="16.5" y="35.2" class="st0" width="6.2" height="6.2"/>
		<rect x="26.9" y="35.2" class="st0" width="6.2" height="6.2"/>
		<rect x="36.8" y="35.2" class="st0" width="6.2" height="6.2"/>
		<path class="st0" d="M81.2,0v25h-7.7c0,0,9.9-14-4.7-15h-6.4l-2.7,8c3.2,2.2,4.2,7,4.2,7h-8.1V10h-6.2v21.5c0,0,0,3.5-3.7,3.5v6.2
			c0,0,9.1,0.5,9.9-10.2h31.6V7.7c0,0,6.4,2,6.4,10V31h6.2V18.7C100,19,100.7,0.5,81.2,0z M68.6,22.5c0.5-3-2.5-6.2-2.5-6.2l2.2-0.3
			C72.8,16.2,68.6,22.5,68.6,22.5z"/>
	</g>
	<g>
		<path class="st0" d="M3.5,56.5l-1,3.5H0l4-12.5h3l4,12.5H8.4l-1-3.5H3.5z M6.9,54.7l-1-3c-0.2-0.7-0.5-1.5-0.5-2.3l0,0
			c-0.2,0.8-0.2,1.5-0.5,2.3l-1,3H6.9z"/>
		<path class="st0" d="M13.3,47.5h2.2V58h4.9v2h-7.2V47.5z"/>
		<path class="st0" d="M30.4,56.5L29.1,60h-2.2l4-12.3h2.7l4,12.3h-2.5l-1-3.5H30.4z M33.8,54.7l-1-3c-0.2-0.7-0.5-1.5-0.5-2.3l0,0
			c-0.2,0.8-0.2,1.5-0.5,2.3l-1,3H33.8z"/>
		<path class="st0" d="M40.2,47.7c0.7-0.2,2-0.2,3.5-0.2c1.7,0,3,0.2,3.7,1c0.7,0.5,1,1.5,1,2.5c0,1.5-1,2.7-2.2,3l0,0
			c1,0.2,1.5,1.2,1.7,2.5c0.5,1.5,0.7,3,1,3.5h-2.5c-0.2-0.2-0.5-1.2-0.7-3c-0.2-1.5-1-2-2.2-2.3h-1.2v5H40v-12H40.2z M42.5,53.2
			h1.2c1.5,0,2.5-0.7,2.5-2s-1-2-2.5-2c-0.7,0-1.2,0-1.5,0v4H42.5z"/>
		<path class="st0" d="M54.1,56.5L52.8,60h-2.2l4-12.3h2.7l4,12.3h-2.5l-1-3.5H54.1z M57.5,54.7l-1-3C56.3,51,56,50.2,56,49.5l0,0
			c-0.2,0.8-0.2,1.5-0.5,2.3l-1,3H57.5z"/>
		<path class="st0" d="M63.9,47.7c0.7-0.2,2-0.2,3.2-0.2c1.7,0,2.7,0.2,3.5,0.7c0.7,0.5,1.2,1.2,1.2,2.3c0,1.2-0.7,2.3-2,2.7l0,0
			c1.2,0.2,2.5,1.2,2.5,3c0,1-0.5,2-1.2,2.5c-1,0.7-2.2,1.2-4.4,1.2c-1.2,0-2.2,0-2.7-0.2V47.7z M66.2,52.5h1.2
			c1.5,0,2.5-0.8,2.5-1.8c0-1.2-1-1.8-2.2-1.8c-0.7,0-1,0-1.2,0v3.5H66.2z M66.2,58.2c0.2,0,0.7,0,1.2,0c1.5,0,2.7-0.5,2.7-2
			s-1.2-2-2.7-2h-1.2V58.2z"/>
		<path class="st0" d="M77.5,47.5V60h-2.2V47.5H77.5z"/>
		<path class="st0" d="M83.5,60v-5.2l-4-7.3H82l1.5,3.2c0.5,1,0.7,1.5,1,2.5l0,0c0.2-0.7,0.7-1.5,1-2.5l1.5-3.2h2.5l-4,7.3V60H83.5z
			"/>
		<path class="st0" d="M92.8,56.5l-1,3.5h-2.2l3.7-12.5H96l4,12.3h-2.5l-1-3.5h-3.7V56.5z M96.3,54.7l-1-3c-0.2-0.7-0.5-1.5-0.5-2.3
			l0,0c-0.2,0.8-0.2,1.5-0.5,2.3l-1,3H96.3z"/>
	</g>
</g>
</svg>
