<?xml version="1.0" encoding="utf-8"?>
<!-- Generator: Adobe Illustrator 23.0.1, SVG Export Plug-In . SVG Version: 6.00 Build 0)  -->
<svg version="1.1" id="Layer_1" xmlns="http://www.w3.org/2000/svg" xmlns:xlink="http://www.w3.org/1999/xlink" x="0px" y="0px"
	 viewBox="0 0 127 60" style="enable-background:new 0 0 127 60;" xml:space="preserve">
<style type="text/css">
	.st0{fill:#FFFFFF;}
</style>
<g>
	<g>
		<g>
			<path class="st0" d="M0.9,0.5h13.2v3H3.6v5.8h9.7v2.8H3.6v6.5h10.7v2.9H0.9V0.5z"/>
		</g>
		<g>
			<path class="st0" d="M17.4,0.5h4L26,16.6c0,0,0-0.1,0-0.2c0.1-0.4,0.2-0.8,0.3-1.2c0.1-0.4,0.2-0.8,0.4-1.3
				c0.1-0.4,0.2-0.9,0.4-1.3c0.1-0.4,0.2-0.8,0.3-1.2c0.4-1.3,0.8-2.6,1.2-4c0.4-1.4,0.8-2.8,1.2-4.1C29.9,3.3,29.9,3,30,2.8
				c0.1-0.2,0.1-0.5,0.2-0.7c0.1-0.2,0.1-0.5,0.2-0.8c0.1-0.3,0.1-0.5,0.2-0.7h3.9v20.9h-3V9.2c0-0.1,0-0.3,0-0.5c0-0.2,0-0.4,0-0.7
				V7.8c0,0,0,0,0,0c0,0,0,0,0,0V7.1V6.8c0,0.1-0.1,0.2-0.1,0.3c0,0.1-0.1,0.2-0.1,0.3c-0.2,0.7-0.4,1.4-0.6,2
				c-0.2,0.7-0.4,1.3-0.6,2l-2.9,10h-2.9L20.3,6.8v0.1c0,0,0,0,0,0c0,0,0,0,0,0c0,0.2,0,0.4,0,0.6c0,0.2,0,0.4,0,0.6
				c0,0.2,0,0.4,0,0.6s0,0.3,0,0.4v12.3h-3V0.5z"/>
		</g>
		<g>
			<path class="st0" d="M38.7,0.5h2.8v20.9h-2.8V0.5z"/>
		</g>
		<g>
			<path class="st0" d="M45.6,0.5h8.3c0.7,0,1.3,0.1,1.9,0.2c0.6,0.1,1.1,0.3,1.5,0.5c0.8,0.5,1.4,1.1,1.9,2
				c0.4,0.9,0.7,1.9,0.7,3.1c0,1.2-0.2,2.1-0.6,2.9c-0.4,0.8-1,1.4-1.7,2c0.3,0.2,0.5,0.4,0.8,0.6c0.2,0.2,0.4,0.4,0.5,0.6
				c0.2,0.3,0.3,0.7,0.4,1.1c0.1,0.5,0.2,1,0.2,1.6l0.1,2.8c0,0.8,0.1,1.4,0.2,1.7c0.1,0.3,0.2,0.5,0.3,0.7c0.1,0.2,0.3,0.4,0.5,0.5
				v0.8h-3.2c-0.1-0.2-0.2-0.3-0.2-0.4c0-0.1-0.1-0.2-0.1-0.4l0-0.1v0c0-0.1,0-0.2,0-0.4c0-0.2,0-0.4,0-0.6c0-0.1,0-0.2,0-0.2
				c0-0.1,0-0.2,0-0.3V19c0,0,0,0,0-0.1c0,0,0,0,0,0c0-0.3,0-0.6,0-0.8s0-0.6,0-0.9c0-0.3,0-0.6,0-0.8c0-0.3,0-0.6,0-0.8
				c0-0.6-0.2-1.1-0.4-1.5c-0.2-0.5-0.5-0.8-0.8-1l0,0c-0.2-0.1-0.5-0.2-0.9-0.2c-0.3-0.1-0.8-0.1-1.2-0.1h-5.2v8.8h-2.8V0.5z
				 M53.6,9.9c0.5,0,1-0.1,1.4-0.2c0.4-0.1,0.8-0.3,1.1-0.5h0c0.3-0.2,0.5-0.6,0.7-1c0.2-0.5,0.2-1,0.2-1.6c0-0.7-0.1-1.2-0.3-1.7
				c-0.2-0.5-0.5-0.8-0.9-1.1l0,0c-0.5-0.3-1.1-0.4-1.9-0.4h-5.6v6.5H53.6z"/>
		</g>
		<g>
			<path class="st0" d="M68.5,0.5h3c0.1,0.3,0.2,0.7,0.4,1.1s0.2,0.8,0.4,1.1c0.1,0.3,0.2,0.5,0.2,0.8c0.1,0.2,0.2,0.5,0.2,0.7
				c0.2,0.6,0.4,1.1,0.5,1.7c0.2,0.5,0.3,1.1,0.5,1.6c0.2,0.6,0.4,1.1,0.5,1.7c0.2,0.5,0.3,1.1,0.5,1.7c0.4,1.1,0.7,2.3,1.1,3.5
				c0.4,1.2,0.7,2.4,1.1,3.5c0.1,0.3,0.2,0.7,0.3,1c0.1,0.4,0.2,0.7,0.3,1.1c0,0.1,0.1,0.2,0.1,0.4c0,0.1,0.1,0.3,0.1,0.4
				c0,0.1,0.1,0.3,0.1,0.4c0,0.1,0.1,0.2,0.1,0.3h-3l-1.8-6.1h-6.7c0,0.1,0,0.1,0,0.1c0,0,0,0,0,0.1c0,0,0,0,0,0.1
				C66.3,16,66.1,16.5,66,17c-0.1,0.5-0.3,0.9-0.4,1.4c-0.1,0.3-0.2,0.7-0.3,1.1c-0.1,0.4-0.2,0.8-0.3,1.1c0,0.1-0.1,0.3-0.1,0.4
				c-0.1,0.2-0.1,0.3-0.1,0.4h-2.9L68.5,0.5z M72.3,12.6c-0.2-0.8-0.5-1.6-0.7-2.4c-0.2-0.8-0.5-1.6-0.7-2.4
				c-0.1-0.4-0.3-0.8-0.4-1.2c-0.1-0.4-0.2-0.8-0.3-1.2c0-0.1-0.1-0.2-0.1-0.3C70.1,5.1,70,5,70,5c0-0.1,0-0.1-0.1-0.2
				c0-0.1-0.1-0.2-0.1-0.3c-0.1,0.4-0.3,0.9-0.4,1.3c-0.1,0.4-0.3,0.9-0.4,1.3c-0.1,0.3-0.2,0.7-0.3,1c-0.1,0.3-0.2,0.7-0.3,1
				c-0.1,0.3-0.2,0.5-0.2,0.8c-0.1,0.3-0.2,0.5-0.2,0.7c-0.1,0.2-0.1,0.4-0.2,0.5c0,0.2-0.1,0.3-0.1,0.5c0,0.2-0.1,0.3-0.2,0.5
				c-0.1,0.2-0.1,0.4-0.2,0.6H72.3z"/>
		</g>
		<g>
			<path class="st0" d="M93.2,0.5v3.2h-5.8v17.7h-3.1V3.8h-5.8V0.5H93.2z"/>
		</g>
		<g>
			<path class="st0" d="M95.6,0.5h13.2v3H98.3v5.8h9.7v2.8h-9.7v6.5H109v2.9H95.6V0.5z"/>
		</g>
		<g>
			<path class="st0" d="M114,14.4c0,0.6,0.1,1.2,0.2,1.7c0.1,0.5,0.3,0.9,0.5,1.2l0,0c0.4,0.6,0.9,1.1,1.6,1.5
				c0.7,0.3,1.5,0.5,2.5,0.5c0.4,0,0.8,0,1.2-0.1c0.4-0.1,0.8-0.2,1.1-0.3c0.6-0.3,1.1-0.7,1.5-1.1c0.4-0.5,0.5-1.1,0.5-1.7
				c0-0.5-0.1-0.9-0.2-1.3c-0.1-0.4-0.3-0.7-0.6-0.9l0,0c-0.1-0.1-0.3-0.2-0.5-0.3c-0.2-0.1-0.4-0.2-0.7-0.3
				c-0.3-0.1-0.5-0.2-0.8-0.3c-0.3-0.1-0.5-0.2-0.8-0.3c0,0-0.1,0-0.1,0c0,0-0.1,0-0.1,0c0,0-0.1,0-0.1,0c-0.1,0-0.2,0-0.3-0.1
				c-0.1,0-0.2-0.1-0.3-0.1l0,0c-0.3-0.1-0.5-0.1-0.8-0.2c-0.3-0.1-0.5-0.1-0.7-0.2c-0.8-0.2-1.5-0.4-2.1-0.7
				c-0.6-0.2-1-0.5-1.3-0.7c-0.6-0.4-1-1-1.3-1.7c-0.3-0.7-0.4-1.5-0.4-2.4c0-0.9,0.1-1.8,0.4-2.6c0.3-0.8,0.7-1.5,1.3-2.1
				c0.6-0.6,1.2-1.1,2-1.4c0.8-0.3,1.7-0.5,2.7-0.5c0.9,0,1.8,0.1,2.6,0.4c0.8,0.3,1.5,0.7,2.2,1.2c0.6,0.5,1.1,1.3,1.5,2.2
				c0.4,0.9,0.5,2,0.6,3.2h-2.6c-0.1-0.6-0.2-1.1-0.3-1.5c-0.1-0.4-0.3-0.8-0.5-1.1c-0.7-1-1.9-1.5-3.6-1.5c-0.7,0-1.2,0.1-1.7,0.2
				c-0.5,0.2-0.9,0.4-1.2,0.7c-0.3,0.3-0.5,0.7-0.6,1c-0.1,0.4-0.2,0.8-0.2,1.2c0,0.4,0.1,0.8,0.3,1.2c0.2,0.3,0.4,0.6,0.7,0.8h0
				c0.2,0.1,0.6,0.3,1.2,0.5c0.6,0.2,1.2,0.4,2,0.6h0c0.2,0.1,0.4,0.1,0.7,0.2c0.3,0.1,0.5,0.1,0.7,0.2c0.2,0,0.4,0.1,0.5,0.1
				c0.2,0,0.3,0.1,0.5,0.1c0.6,0.2,1.1,0.4,1.6,0.6s0.9,0.5,1.2,0.8c0.6,0.5,1,1.1,1.3,1.9c0.3,0.7,0.4,1.6,0.4,2.5
				c0,1.2-0.2,2.2-0.6,3c-0.4,0.9-0.9,1.5-1.7,2c-0.7,0.5-1.5,0.8-2.3,1.1c-0.9,0.3-1.8,0.4-2.7,0.4c-1.1,0-2.1-0.2-3-0.5
				c-0.9-0.3-1.6-0.8-2.3-1.5c-0.6-0.7-1.1-1.5-1.4-2.4c-0.3-0.9-0.5-2-0.5-3.2H114z"/>
		</g>
		<g>
			<path class="st0" d="M0.7,37.9h2.7l9.4,17.5V37.9h2.1v21h-2.6L2.8,41.4v17.5H0.7V37.9z"/>
		</g>
		<g>
			<path class="st0" d="M19.1,37.9h13.1v2.4H21.3v6.7h10v2.2h-10v7.5h11.1v2.3H19.1V37.9z"/>
		</g>
		<g>
			<path class="st0" d="M36.5,37.9l3.4,17.2c0,0,0.1,0,0.1,0c0,0,0.1,0,0.1,0c0.2-1,0.5-2,0.7-3.1c0.2-1,0.5-2.1,0.7-3.2
				s0.5-2.1,0.8-3.2c0.3-1,0.5-2.1,0.7-3.1c0.2-0.8,0.4-1.6,0.6-2.4c0.2-0.8,0.4-1.6,0.6-2.4h2.5l4.1,17.2c0,0,0.1,0,0.1,0
				c0,0,0.1,0,0.1,0c0.1-0.3,0.1-0.5,0.2-0.8c0-0.3,0.1-0.5,0.2-0.8c0.5-2.5,1-5.2,1.6-7.8c0.5-2.7,1-5.3,1.5-7.8h2.5
				c-0.3,1.5-0.7,2.9-1,4.3c-0.3,1.4-0.7,2.9-1,4.3c-0.5,2.1-0.9,4.1-1.4,6.1c-0.5,2-0.9,4.1-1.4,6.2h-2.4l-4.3-18
				c-0.4,1.5-0.7,2.9-1.1,4.4c-0.4,1.5-0.7,3-1.1,4.5c-0.4,1.5-0.7,3-1.1,4.6c-0.4,1.5-0.7,3-1.1,4.5h-2.4l-1.1-4.9
				c-0.6-2.6-1.2-5.3-1.8-8c-0.6-2.7-1.2-5.4-1.8-8H36.5z"/>
		</g>
		<g>
			<path class="st0" d="M60.6,52.3c0,0.6,0.1,1.1,0.3,1.6s0.3,0.9,0.5,1.3c0.4,0.7,1,1.3,1.7,1.6c0.7,0.4,1.6,0.6,2.7,0.6
				c0.5,0,0.9,0,1.3-0.1c0.4-0.1,0.8-0.2,1.2-0.4c0.8-0.3,1.3-0.7,1.7-1.3c0.4-0.6,0.6-1.2,0.6-2c0-0.6-0.1-1.1-0.3-1.5
				c-0.2-0.4-0.4-0.8-0.7-1.1c-0.2-0.1-0.3-0.2-0.6-0.3c-0.2-0.1-0.5-0.2-0.7-0.3s-0.5-0.2-0.8-0.3c-0.3-0.1-0.6-0.2-0.9-0.3
				c-0.4-0.1-0.8-0.2-1.2-0.3c-0.4-0.1-0.8-0.2-1.2-0.3c-0.8-0.2-1.5-0.4-2.1-0.7c-0.6-0.2-1-0.5-1.3-0.7c-0.5-0.4-1-1-1.2-1.6
				c-0.3-0.6-0.4-1.4-0.4-2.3c0-1.9,0.6-3.4,1.7-4.6c1.1-1.2,2.7-1.8,4.7-1.8c0.9,0,1.8,0.1,2.6,0.4c0.8,0.3,1.5,0.7,2.2,1.2
				c0.6,0.5,1.1,1.2,1.4,2c0.3,0.8,0.5,1.8,0.5,2.9h-2.1c-0.1-0.5-0.2-1-0.3-1.4c-0.1-0.4-0.3-0.8-0.5-1.1c-0.8-1.2-2.1-1.7-3.9-1.7
				c-1.5,0-2.6,0.4-3.2,1.1c-0.7,0.7-1,1.6-1,2.6c0,0.5,0.1,1,0.3,1.4c0.2,0.4,0.5,0.7,0.9,1c0.3,0.2,0.7,0.3,1.2,0.5
				c0.6,0.2,1.3,0.4,2.1,0.6c0.2,0.1,0.5,0.1,0.7,0.2c0.3,0.1,0.5,0.1,0.8,0.2c0.2,0,0.4,0.1,0.5,0.1c0.2,0,0.4,0.1,0.5,0.1
				c0.6,0.2,1.1,0.4,1.6,0.6c0.5,0.2,0.9,0.5,1.2,0.7c0.5,0.5,1,1.1,1.3,1.8c0.3,0.7,0.4,1.5,0.4,2.4c0,2.3-0.7,3.9-2.1,4.9
				c-0.7,0.5-1.5,0.9-2.3,1.1c-0.8,0.3-1.7,0.4-2.7,0.4c-1.1,0-2.1-0.2-3-0.5c-0.9-0.3-1.6-0.8-2.2-1.5c-0.6-0.7-1-1.4-1.4-2.3
				c-0.3-0.9-0.5-1.8-0.5-2.9H60.6z"/>
		</g>
		<g>
			<path class="st0" d="M86.8,49.3L86.8,49.3c0.5-0.4,1-0.7,1.4-1c0.4-0.3,0.7-0.6,0.9-0.9c0.7-0.8,1.1-1.8,1.1-2.8
				c0-1.2-0.3-2.2-1-2.9c-0.6-0.7-1.5-1.1-2.6-1.1c-1.6,0-2.7,0.7-3.3,2.1c-0.3,0.7-0.5,1.7-0.5,2.9h-2c0-0.8,0.1-1.6,0.3-2.3
				c0.2-0.7,0.3-1.3,0.6-1.9c0.5-0.9,1.1-1.7,2-2.2c0.8-0.5,1.9-0.8,3-0.8c1,0,1.8,0.2,2.6,0.5c0.7,0.3,1.3,0.8,1.8,1.4
				c0.5,0.6,0.8,1.3,1,2c0.2,0.7,0.4,1.4,0.4,2.2c0,1.6-0.5,3-1.5,4.2c-0.3,0.3-0.7,0.7-1.2,1.1c-0.5,0.4-1.2,0.9-1.9,1.3
				c-0.2,0.1-0.3,0.2-0.5,0.3c-0.2,0.1-0.3,0.2-0.5,0.3c-0.1,0.1-0.3,0.2-0.4,0.2c-0.1,0.1-0.3,0.2-0.4,0.2
				c-0.4,0.2-0.7,0.5-1.1,0.8c-0.3,0.3-0.6,0.5-0.9,0.8c-0.4,0.4-0.8,0.9-1,1.4c-0.3,0.5-0.5,1-0.6,1.6h9.7v2.2H80.4
				c0-0.8,0.2-1.6,0.3-2.4c0.2-0.8,0.4-1.4,0.6-2.1c0.3-0.6,0.7-1.3,1.2-1.9c0.5-0.6,1.2-1.2,2-1.7L86.8,49.3z"/>
		</g>
		<g>
			<path class="st0" d="M101.9,58.9v-5.1h-7.8v-2.4c0.8-1.3,1.5-2.5,2.3-3.7c0.8-1.2,1.5-2.5,2.3-3.7c0.6-0.9,1.1-1.8,1.7-2.8
				c0.6-0.9,1.2-1.9,1.7-2.8h1.7v13.4h2.6v2h-2.6v5.1H101.9z M101.9,51.8v-9.9c-1,1.7-2,3.3-3,4.9c-1,1.6-2,3.3-3,5H101.9z"/>
		</g>
		<g>
			<path class="st0" d="M127,38.8v2.1c-0.3,0.3-0.6,0.8-1,1.3c-0.4,0.6-0.8,1.2-1.2,2c-0.5,0.8-0.9,1.6-1.3,2.5
				c-0.4,0.9-0.8,1.8-1.2,2.7c-0.4,0.9-0.7,1.8-1,2.6c-0.3,0.8-0.5,1.6-0.7,2.3c-0.3,0.9-0.6,2.4-0.9,4.5h-2.2
				c0.1-0.9,0.3-1.9,0.6-2.9s0.5-2,0.8-3c0.3-1,0.7-2,1.1-3c0.4-1,0.8-1.9,1.2-2.8c0.5-1.1,1.1-2.2,1.8-3.2c0.6-1,1.3-2,2-2.9h-10
				v-2.4H127z"/>
		</g>
	</g>
	<g>
		<rect y="26.9" class="st0" width="126.4" height="2.3"/>
	</g>
	<g>
		<rect x="109.6" y="37.5" class="st0" width="1.8" height="22.5"/>
	</g>
</g>
</svg>
