<?xml version="1.0" encoding="iso-8859-1"?>
<!-- Generator: Adobe Illustrator 19.0.0, SVG Export Plug-In . SVG Version: 6.00 Build 0)  -->
<svg version="1.1" id="Layer_1" xmlns="http://www.w3.org/2000/svg" xmlns:xlink="http://www.w3.org/1999/xlink" x="0px" y="0px"
	 viewBox="0 0 38 36.8" style="enable-background:new 0 0 38 36.8;" xml:space="preserve">
<g>
	<path style="fill:#ffffff;" d="M16.626,0c4.582-0.013,7.906,4.203,6.928,8.795c-0.441,2.072-1.444,3.883-2.648,5.593
		c-1.097,1.557-2.339,2.991-3.73,4.295c-0.417,0.391-0.681,0.403-1.075,0.026c-2.281-2.179-4.261-4.59-5.59-7.477
		c-0.828-1.8-1.27-3.671-0.826-5.665C10.411,2.314,13.283,0.01,16.626,0z M16.645,10.691c1.959-0.007,3.567-1.619,3.566-3.575
		c-0.001-1.973-1.631-3.592-3.607-3.583c-1.962,0.009-3.556,1.615-3.552,3.581C13.054,9.114,14.645,10.698,16.645,10.691z"/>
	<path style="fill:#ffffff;" d="M8.278,32.677C8.277,34.97,6.441,36.801,4.146,36.8C1.856,36.799-0.002,34.952,0,32.68
		c0.002-2.3,1.875-4.169,4.166-4.156C6.447,28.536,8.279,30.386,8.278,32.677z M4.129,30.874c-1.005,0.009-1.79,0.819-1.776,1.833
		c0.013,0.97,0.839,1.775,1.81,1.764c0.967-0.011,1.785-0.834,1.785-1.797C5.947,31.678,5.126,30.865,4.129,30.874z"/>
	<path style="fill:#ffffff;" d="M33.859,1.196C36.142,1.195,38.005,3.052,38,5.325c-0.005,2.285-1.852,4.146-4.123,4.156
		c-2.295,0.01-4.163-1.86-4.158-4.161C29.725,3.032,31.567,1.198,33.859,1.196z M35.652,5.358c0.009-1.002-0.8-1.825-1.793-1.824
		c-0.979,0-1.789,0.799-1.8,1.774c-0.011,1.003,0.792,1.818,1.793,1.821C34.834,7.132,35.644,6.334,35.652,5.358z"/>
	<path style="fill:#ffffff;" d="M26.084,21.355c-0.193,0-0.387,0.015-0.578-0.003c-0.347-0.034-0.549-0.244-0.537-0.587
		c0.011-0.316,0.199-0.519,0.533-0.547c0.103-0.008,0.209-0.015,0.311-0.003c0.282,0.033,0.371-0.104,0.352-0.363
		c-0.009-0.117-0.038-0.272,0.021-0.348c0.14-0.181,0.318-0.439,0.497-0.452c0.185-0.014,0.539,0.205,0.558,0.356
		c0.067,0.521,0.057,1.06-0.004,1.583c-0.016,0.141-0.3,0.301-0.49,0.358c-0.203,0.062-0.44,0.014-0.663,0.014
		C26.084,21.36,26.084,21.357,26.084,21.355z"/>
	<path style="fill:#ffffff;" d="M15.416,21.363c0,0.257,0.018,0.448-0.004,0.635c-0.038,0.312-0.202,0.524-0.541,0.535
		c-0.354,0.011-0.571-0.18-0.597-0.52c-0.032-0.411-0.031-0.828-0.011-1.24c0.017-0.337,0.212-0.552,0.566-0.56
		c0.414-0.01,0.828-0.011,1.241,0.009c0.332,0.016,0.523,0.234,0.529,0.548c0.006,0.333-0.186,0.557-0.536,0.59
		C15.873,21.378,15.681,21.363,15.416,21.363z"/>
	<path style="fill:#ffffff;" d="M14.261,32.087c0-0.225-0.01-0.4,0.002-0.573c0.024-0.357,0.195-0.602,0.577-0.598
		c0.376,0.003,0.563,0.229,0.568,0.6c0.005,0.371,0.004,0.742,0,1.113c-0.005,0.399-0.218,0.6-0.611,0.607
		c-0.371,0.007-0.742,0.01-1.113,0c-0.364-0.01-0.597-0.189-0.594-0.573c0.003-0.382,0.243-0.552,0.601-0.573
		C13.854,32.079,14.017,32.087,14.261,32.087z"/>
	<path style="fill:#ffffff;" d="M27.325,5.912c-0.015,0.287-0.005,0.498-0.04,0.701c-0.057,0.323-0.274,0.497-0.598,0.476
		c-0.301-0.019-0.504-0.202-0.519-0.511c-0.02-0.429-0.021-0.861-0.001-1.29c0.014-0.307,0.204-0.499,0.513-0.514
		c0.414-0.02,0.831-0.022,1.246-0.005c0.346,0.014,0.559,0.217,0.558,0.567c-0.001,0.35-0.222,0.539-0.561,0.573
		C27.733,5.927,27.542,5.912,27.325,5.912z"/>
	<path style="fill:#ffffff;" d="M22.535,21.354c-0.207-0.001-0.416,0.014-0.622-0.004c-0.332-0.029-0.516-0.24-0.516-0.558
		c0-0.335,0.179-0.564,0.543-0.573c0.414-0.01,0.83-0.017,1.243,0c0.353,0.015,0.548,0.239,0.545,0.578
		c-0.003,0.321-0.204,0.521-0.528,0.553C22.981,21.372,22.757,21.355,22.535,21.354z"/>
	<path style="fill:#ffffff;" d="M10.654,33.23c-0.208,0-0.417,0.016-0.623-0.004c-0.306-0.029-0.487-0.208-0.507-0.52
		c-0.022-0.335,0.158-0.569,0.471-0.598c0.456-0.042,0.921-0.035,1.378,0.002c0.3,0.024,0.465,0.248,0.463,0.559
		c-0.001,0.312-0.166,0.512-0.472,0.55c-0.234,0.029-0.474,0.006-0.712,0.006C10.654,33.227,10.654,33.228,10.654,33.23z"/>
	<path style="fill:#ffffff;" d="M15.403,24.962c0,0.208,0.013,0.417-0.002,0.623c-0.023,0.311-0.205,0.488-0.514,0.51
		c-0.331,0.024-0.573-0.143-0.602-0.463c-0.041-0.456-0.041-0.922,0-1.378c0.029-0.316,0.263-0.495,0.597-0.47
		c0.307,0.023,0.493,0.199,0.517,0.51C15.417,24.516,15.403,24.739,15.403,24.962z"/>
	<path style="fill:#ffffff;" d="M15.406,28.504c0,0.208,0.011,0.416-0.002,0.624c-0.021,0.33-0.204,0.521-0.537,0.535
		c-0.333,0.014-0.56-0.163-0.586-0.484c-0.036-0.442-0.037-0.892-0.002-1.334c0.025-0.316,0.244-0.509,0.579-0.495
		c0.328,0.014,0.522,0.199,0.545,0.531C15.418,28.088,15.406,28.296,15.406,28.504z"/>
	<path style="fill:#ffffff;" d="M27.309,16.618c0,0.207,0.019,0.417-0.004,0.622c-0.038,0.337-0.229,0.552-0.581,0.551
		c-0.355-0.001-0.544-0.211-0.552-0.562c-0.01-0.4-0.012-0.8-0.001-1.2c0.009-0.345,0.184-0.568,0.543-0.574
		c0.351-0.005,0.55,0.203,0.59,0.541C27.328,16.201,27.308,16.41,27.309,16.618z"/>
	<path style="fill:#ffffff;" d="M18.961,21.359c-0.207,0-0.416,0.02-0.62-0.005c-0.327-0.04-0.506-0.266-0.501-0.574
		c0.005-0.306,0.182-0.546,0.513-0.563c0.427-0.022,0.857-0.014,1.284,0.005c0.332,0.015,0.521,0.235,0.529,0.547
		c0.01,0.34-0.196,0.551-0.541,0.582c-0.22,0.019-0.443,0.004-0.664,0.004C18.961,21.355,18.961,21.357,18.961,21.359z"/>
	<path style="fill:#ffffff;" d="M26.163,13.034c0-0.208-0.014-0.416,0.003-0.623c0.026-0.31,0.213-0.488,0.52-0.507
		c0.303-0.019,0.557,0.124,0.582,0.429c0.04,0.484,0.055,0.982-0.018,1.458c-0.026,0.168-0.326,0.375-0.53,0.414
		c-0.285,0.054-0.51-0.149-0.545-0.46c-0.026-0.234-0.005-0.474-0.005-0.711C26.167,13.034,26.165,13.034,26.163,13.034z"/>
	<path style="fill:#ffffff;" d="M26.164,9.509c0-0.222-0.016-0.446,0.004-0.667c0.027-0.308,0.213-0.489,0.521-0.505
		c0.303-0.016,0.555,0.129,0.579,0.434c0.039,0.484,0.054,0.981-0.02,1.458c-0.026,0.167-0.329,0.374-0.533,0.411
		c-0.285,0.052-0.508-0.152-0.543-0.464c-0.025-0.219-0.005-0.444-0.005-0.666C26.167,9.509,26.165,9.509,26.164,9.509z"/>
</g>
<g>
</g>
<g>
</g>
<g>
</g>
<g>
</g>
<g>
</g>
<g>
</g>
</svg>
