<?xml version="1.0" encoding="utf-8"?>
<!-- Generator: Adobe Illustrator 23.0.1, SVG Export Plug-In . SVG Version: 6.00 Build 0)  -->
<svg version="1.1" id="Layer_1" xmlns="http://www.w3.org/2000/svg" xmlns:xlink="http://www.w3.org/1999/xlink" x="0px" y="0px"
	 viewBox="0 0 32 32" style="enable-background:new 0 0 32 32;" xml:space="preserve">
<style type="text/css">
	.st0{fill:#FFFFFF;}
</style>
<g>
	<path d="M30.3,10.6"/>
	<g>
		<path class="st0" d="M26.1,4.7l-3.1,0c-0.6,0-1,0.4-1,1l-0.2,1.9c1.1,0.4,1.9,1.5,1.8,2.8c-0.1,1.5-1.5,2.6-3,2.5
			c-1.5-0.1-2.7-1.4-2.5-2.9c0.1-0.9,0.6-1.6,1.2-2l0-2.2c0-0.6-0.5-1-1-1l-2.6,0c-0.6,0-1.3,0.3-1.7,0.7L0.3,19.3
			c-0.4,0.4-0.4,1,0,1.4l10.9,10.1c0.4,0.4,1.1,0.4,1.4,0l13.6-13.9c0.4-0.4,0.7-1.2,0.7-1.7l0.2-9.3C27.1,5.2,26.7,4.7,26.1,4.7z
			 M16.1,18.6c-0.2-0.4-0.4-1.1-1.2-1.9c-0.7-0.7-1.2-0.6-1.5-0.3c-0.4,0.3-0.2,0.9,0.4,2.2c0.8,1.7,0.8,2.8-0.2,3.7
			c-1,0.9-2.5,1.1-3.9,0.1l-1.1,1.1l-1.1-1l1-1c-0.7-0.7-1.2-1.6-1.4-2.2l1.6-0.9c0.2,0.7,0.6,1.5,1.3,2.2c0.6,0.6,1.3,0.8,1.7,0.3
			c0.4-0.4,0.3-1-0.2-2c-0.8-1.5-1-2.8,0-3.8c0.9-0.9,2.4-1,3.7-0.1l1-1l1.1,1l-0.9,0.9c0.7,0.7,1,1.3,1.2,1.9L16.1,18.6z"/>
	</g>
	<g>
		<path class="st0" d="M25.8,2.6c1.6,0,3.2,1.1,3.8,2.1c1.6,2.6,0.3,5.7-1.3,8.7c-0.1,0.2-0.1,0.4-0.1,0.6c0.1,0.2,0.2,0.4,0.4,0.5
			c0.4,0.2,0.9,0,1.1-0.3c1.8-3.2,3.3-7,1.3-10.2C30.2,2.5,28.2,1,25.8,1c-2.2,0-4,0.9-5.1,2.4c-2,2.7-0.5,6.9-0.4,7.1
			c0.1,0.4,0.6,0.6,1,0.5c0.2-0.1,0.4-0.2,0.5-0.4c0.1-0.2,0.1-0.4,0-0.6c-0.1-0.4-1.2-3.7,0.2-5.7C22.8,3.2,24.2,2.6,25.8,2.6z"/>
	</g>
</g>
</svg>
