<?xml version="1.0" encoding="iso-8859-1"?>
<!-- Generator: Adobe Illustrator 19.0.0, SVG Export Plug-In . SVG Version: 6.00 Build 0)  -->
<svg version="1.1" id="Layer_1" xmlns="http://www.w3.org/2000/svg" xmlns:xlink="http://www.w3.org/1999/xlink" x="0px" y="0px"
	 viewBox="0 0 38 38.023" style="enable-background:new 0 0 38 38.023;" xml:space="preserve">
<g>
	<path style="fill:#ffffff;" d="M19.853,0c0.154,0.201,0.376,0.382,0.444,0.609c0.093,0.311-0.084,0.569-0.405,0.68
		c-0.313,0.109-0.631-0.024-0.781-0.306c-0.153-0.287-0.081-0.612,0.185-0.816C19.376,0.106,19.462,0.055,19.545,0
		C19.648,0,19.751,0,19.853,0z"/>
	<path style="fill:#ffffff;" d="M29.383,10.061c-0.434,1.01-0.868,2.02-1.301,3.031c-0.762,1.777-1.523,3.555-2.287,5.331
		c-0.286,0.666-0.709,0.765-1.248,0.291c-0.974-0.855-1.948-1.709-2.913-2.574c-0.183-0.164-0.33-0.174-0.574-0.125
		c-0.594,0.119-1.203,0.202-1.808,0.216c-0.32,0.008-0.498,0.041-0.641,0.361c-0.986,2.197-2.003,4.38-2.989,6.577
		c-0.197,0.44-0.483,0.613-0.952,0.604c-1.001-0.018-2.002,0.007-3.002-0.013c-0.295-0.006-0.427,0.1-0.531,0.364
		c-0.764,1.942-1.541,3.879-2.317,5.816c-0.292,0.729-0.752,0.819-1.309,0.262c-0.962-0.962-1.922-1.925-2.884-2.886
		c-0.106-0.106-0.219-0.206-0.366-0.344c-0.212,0.459-0.405,0.872-0.594,1.288c-0.779,1.714-1.549,3.433-2.345,5.139
		c-0.098,0.211-0.307,0.447-0.512,0.508c-0.181,0.053-0.471-0.072-0.639-0.21c-0.23-0.189-0.196-0.475-0.073-0.744
		c0.623-1.363,1.242-2.728,1.863-4.092c0.451-0.991,0.903-1.981,1.354-2.972c0.393-0.866,0.791-0.939,1.452-0.274
		c0.923,0.928,1.85,1.852,2.776,2.777c0.098,0.098,0.202,0.191,0.346,0.326c0.076-0.17,0.139-0.302,0.193-0.437
		c0.685-1.712,1.368-3.425,2.053-5.137c0.247-0.618,0.343-0.681,0.995-0.682c1.001,0,2.002-0.01,3.002,0.005
		c0.287,0.005,0.428-0.095,0.546-0.357c0.905-2.009,1.82-4.013,2.748-6.011c0.136-0.293,0.128-0.447-0.157-0.653
		c-1.441-1.042-1.997-2.929-1.389-4.595c0.61-1.673,2.302-2.807,4.051-2.657c1.629,0.14,2.838,0.956,3.473,2.476
		c0.619,1.482,0.387,2.885-0.612,4.151c-0.079,0.1-0.164,0.196-0.289,0.344c0.774,0.685,1.544,1.366,2.364,2.092
		c0.096-0.209,0.172-0.364,0.24-0.523c1.126-2.625,2.251-5.25,3.377-7.875c0.355-0.826,0.755-0.899,1.398-0.256
		c0.971,0.97,1.942,1.942,2.913,2.912c0.081,0.081,0.166,0.157,0.292,0.275c0.091-0.163,0.175-0.299,0.245-0.44
		c1.107-2.212,2.212-4.424,3.318-6.636c0.052-0.103,0.098-0.21,0.163-0.305c0.203-0.297,0.54-0.381,0.842-0.219
		c0.299,0.161,0.435,0.499,0.287,0.818c-0.281,0.604-0.582,1.199-0.88,1.795c-1.031,2.064-2.064,4.126-3.096,6.189
		c-0.347,0.694-0.762,0.765-1.311,0.219c-0.964-0.959-1.926-1.921-2.883-2.888c-0.098-0.099-0.149-0.243-0.222-0.366
		C29.493,9.992,29.438,10.026,29.383,10.061z M22.417,12.25c0.007-1.53-1.236-2.783-2.748-2.77
		c-1.495,0.013-2.745,1.269-2.744,2.758c0.001,1.487,1.224,2.719,2.711,2.731C21.191,14.982,22.41,13.79,22.417,12.25z"/>
	<path style="fill:#ffffff;" d="M20.318,3.396c0.005,0.356-0.262,0.648-0.607,0.663c-0.343,0.015-0.675-0.298-0.683-0.645
		c-0.009-0.338,0.278-0.635,0.625-0.648C20.037,2.753,20.312,3.014,20.318,3.396z"/>
	<path style="fill:#ffffff;" d="M20.317,21.066c0,0.371-0.251,0.632-0.615,0.639c-0.373,0.007-0.673-0.275-0.673-0.635
		c0-0.352,0.313-0.655,0.67-0.646C20.058,20.432,20.316,20.701,20.317,21.066z"/>
	<path style="fill:#ffffff;" d="M19.687,27.16c-0.348,0-0.666-0.322-0.66-0.668c0.006-0.342,0.296-0.622,0.648-0.624
		c0.383-0.003,0.648,0.267,0.643,0.654C20.314,26.876,20.033,27.16,19.687,27.16z"/>
	<path style="fill:#ffffff;" d="M20.316,31.948c-0.004,0.369-0.258,0.623-0.627,0.626c-0.374,0.003-0.669-0.285-0.66-0.646
		c0.007-0.332,0.312-0.636,0.644-0.643C20.033,31.278,20.32,31.574,20.316,31.948z"/>
	<path style="fill:#ffffff;" d="M19.701,38.023c-0.356,0.008-0.67-0.292-0.674-0.646c-0.003-0.34,0.285-0.63,0.633-0.639
		c0.382-0.01,0.657,0.257,0.659,0.639C20.322,37.735,20.055,38.014,19.701,38.023z"/>
	<path style="fill:#ffffff;" d="M19.691,6.761c-0.363,0.004-0.669-0.296-0.662-0.649c0.006-0.342,0.294-0.624,0.642-0.631
		c0.379-0.007,0.649,0.265,0.645,0.649C20.313,6.494,20.052,6.757,19.691,6.761z"/>
	<path style="fill:#ffffff;" d="M19.683,29.863c-0.348,0-0.642-0.279-0.654-0.619c-0.012-0.355,0.287-0.659,0.65-0.662
		c0.377-0.003,0.645,0.273,0.637,0.658C20.309,29.605,20.047,29.863,19.683,29.863z"/>
	<path style="fill:#ffffff;" d="M20.316,18.354c-0.001,0.359-0.267,0.637-0.618,0.645c-0.354,0.008-0.67-0.299-0.669-0.649
		c0.001-0.358,0.301-0.641,0.674-0.634C20.071,17.724,20.318,17.98,20.316,18.354z"/>
	<path style="fill:#ffffff;" d="M19.691,23.131c0.341,0.005,0.625,0.295,0.628,0.643c0.003,0.381-0.27,0.656-0.647,0.652
		c-0.345-0.004-0.636-0.292-0.642-0.633C19.024,23.445,19.342,23.127,19.691,23.131z"/>
	<path style="fill:#ffffff;" d="M20.317,34.642c0.005,0.372-0.278,0.672-0.636,0.672c-0.331,0-0.639-0.3-0.652-0.634
		c-0.014-0.355,0.285-0.655,0.652-0.656C20.049,34.023,20.312,34.279,20.317,34.642z"/>
	<path style="fill:#ffffff;" d="M19.665,13.553c-0.728-0.005-1.326-0.605-1.319-1.325c0.007-0.727,0.6-1.311,1.333-1.314
		c0.758-0.003,1.335,0.585,1.324,1.347C20.991,13.002,20.415,13.558,19.665,13.553z"/>
</g>
<g>
</g>
<g>
</g>
<g>
</g>
<g>
</g>
<g>
</g>
<g>
</g>
</svg>
